…
#NA Summary

```r
naniar::miss_var_summary(n_happy)
```

```
## # A tibble: 21 × 3
##    variable                       n_miss pct_miss
##    <chr>                           <int>    <dbl>
##  1 country_name                        0        0
##  2 regional_indicator                  0        0
##  3 ladder_score                        0        0
##  4 standard_error_of_ladder_score      0        0
##  5 upperwhisker                        0        0
##  6 lowerwhisker                        0        0
##  7 logged_gdp_per_capita               0        0
##  8 social_support                      0        0
##  9 healthy_life_expectancy             0        0
## 10 freedom_to_make_life_choices        0        0
## # … with 11 more rows
```
…
```r
reorder <- tw_narrow %>% 
  group_by(country_name) %>% 
pivot_longer (-c(country_name,year,ladder_score),
  names_to= "Factors",
  values_to="Score") %>% 
  clean_names()
reorder
```

```
## # A tibble: 1,071 × 5
## # Groups:   country_name [153]
##    country_name ladder_score  year factors                        score
##    <chr>               <dbl> <int> <chr>                          <dbl>
##  1 Finland              7.81  2020 social_support                0.954 
##  2 Finland              7.81  2020 healthy_life_expectancy      71.9   
##  3 Finland              7.81  2020 freedom_to_make_life_choices  0.949 
##  4 Finland              7.81  2020 generosity                   -0.0595
##  5 Finland              7.81  2020 perceptions_of_corruption     0.195 
##  6 Finland              7.81  2020 logged_gdp_per_capita        10.6   
##  7 Finland              7.81  2020 dystopia_residual             2.76  
##  8 Denmark              7.65  2020 social_support                0.956 
##  9 Denmark              7.65  2020 healthy_life_expectancy      72.4   
## 10 Denmark              7.65  2020 freedom_to_make_life_choices  0.951 
## # … with 1,061 more rows
```
…
```r
revamp <- t1_narrow %>% 
  group_by(country_name) %>% 
pivot_longer (-c(country_name,year,ladder_score),
  names_to= "Factors",
  values_to="Score") %>% 
  clean_names()
revamp
```

```
## # A tibble: 1,043 × 5
## # Groups:   country_name [149]
##    country_name ladder_score  year factors                       score
##    <chr>               <dbl> <int> <chr>                         <dbl>
##  1 Finland              7.84  2021 social_support                0.954
##  2 Finland              7.84  2021 healthy_life_expectancy      72    
##  3 Finland              7.84  2021 freedom_to_make_life_choices  0.949
##  4 Finland              7.84  2021 generosity                   -0.098
##  5 Finland              7.84  2021 perceptions_of_corruption     0.186
##  6 Finland              7.84  2021 logged_gdp_per_capita        10.8  
##  7 Finland              7.84  2021 dystopia_residual             3.25 
##  8 Denmark              7.62  2021 social_support                0.954
##  9 Denmark              7.62  2021 healthy_life_expectancy      72.7  
## 10 Denmark              7.62  2021 freedom_to_make_life_choices  0.946
## # … with 1,033 more rows
```
…
```r
revamp5
```

```
## # A tibble: 35 × 5
## # Groups:   country_name [5]
##    country_name ladder_score  year Factors                       Score
##    <chr>               <dbl> <int> <chr>                         <dbl>
##  1 Finland              7.84  2021 social_support                0.954
##  2 Finland              7.84  2021 healthy_life_expectancy      72    
##  3 Finland              7.84  2021 freedom_to_make_life_choices  0.949
##  4 Finland              7.84  2021 generosity                   -0.098
##  5 Finland              7.84  2021 perceptions_of_corruption     0.186
##  6 Finland              7.84  2021 logged_gdp_per_capita        10.8  
##  7 Finland              7.84  2021 dystopia_residual             3.25 
##  8 Denmark              7.62  2021 social_support                0.954
##  9 Denmark              7.62  2021 healthy_life_expectancy      72.7  
## 10 Denmark              7.62  2021 freedom_to_make_life_choices  0.946
## # … with 25 more rows
```
