…
#Clean Up of Data

```r
happy
```

```
## # A tibble: 147 × 12
##     RANK Country Happi…¹ Whisk…² Whisk…³ Dysto…⁴ Expla…⁵ Expla…⁶ Expla…⁷ Expla…⁸
##    <dbl> <chr>     <dbl>   <dbl>   <dbl> <chr>   <chr>   <chr>   <chr>   <chr>  
##  1     1 Finland    7821    7886    7756 2,518   1,892   1,258   0,775   0,736  
##  2     2 Denmark    7636    7710    7563 2,226   1,953   1,243   0,777   0,719  
##  3     3 Iceland    7557    7651    7464 2,320   1,936   1,320   0,803   0,718  
##  4     4 Switze…    7512    7586    7437 2,153   2,026   1,226   0,822   0,677  
##  5     5 Nether…    7415    7471    7359 2,137   1,945   1,206   0,787   0,651  
##  6     6 Luxemb…    7404    7501    7307 2,042   2,209   1,155   0,790   0,700  
##  7     7 Sweden     7384    7454    7315 2,003   1,920   1,204   0,803   0,724  
##  8     8 Norway     7365    7440    7290 1,925   1,997   1,239   0,786   0,728  
##  9     9 Israel     7364    7426    7301 2,634   1,826   1,221   0,818   0,568  
## 10    10 New Ze…    7200    7279    7120 1,954   1,852   1,235   0,752   0,680  
## # … with 137 more rows, 2 more variables: `Explained by: Generosity` <chr>,
## #   `Explained by: Perceptions of corruption` <chr>, and abbreviated variable
## #   names ¹​`Happiness score`, ²​`Whisker-high`, ³​`Whisker-low`,
## #   ⁴​`Dystopia (1.83) + residual`, ⁵​`Explained by: GDP per capita`,
## #   ⁶​`Explained by: Social support`, ⁷​`Explained by: Healthy life expectancy`,
## #   ⁸​`Explained by: Freedom to make life choices`
```
…
```r
happy <- janitor::clean_names(happy)
```

convert euro commas to points


```r
happy %>% 
  mutate_all(~str_replace_all(.,",","."))
```

```
## # A tibble: 147 × 12
##    rank  country happi…¹ whisk…² whisk…³ dysto…⁴ expla…⁵ expla…⁶ expla…⁷ expla…⁸
##    <chr> <chr>   <chr>   <chr>   <chr>   <chr>   <chr>   <chr>   <chr>   <chr>  
##  1 1     Finland 7821    7886    7756    2.518   1.892   1.258   0.775   0.736  
##  2 2     Denmark 7636    7710    7563    2.226   1.953   1.243   0.777   0.719  
##  3 3     Iceland 7557    7651    7464    2.320   1.936   1.320   0.803   0.718  
##  4 4     Switze… 7512    7586    7437    2.153   2.026   1.226   0.822   0.677  
##  5 5     Nether… 7415    7471    7359    2.137   1.945   1.206   0.787   0.651  
##  6 6     Luxemb… 7404    7501    7307    2.042   2.209   1.155   0.790   0.700  
##  7 7     Sweden  7384    7454    7315    2.003   1.920   1.204   0.803   0.724  
##  8 8     Norway  7365    7440    7290    1.925   1.997   1.239   0.786   0.728  
##  9 9     Israel  7364    7426    7301    2.634   1.826   1.221   0.818   0.568  
## 10 10    New Ze… 7200    7279    7120    1.954   1.852   1.235   0.752   0.680  
## # … with 137 more rows, 2 more variables: explained_by_generosity <chr>,
## #   explained_by_perceptions_of_corruption <chr>, and abbreviated variable
## #   names ¹​happiness_score, ²​whisker_high, ³​whisker_low,
## #   ⁴​dystopia_1_83_residual, ⁵​explained_by_gdp_per_capita,
## #   ⁶​explained_by_social_support, ⁷​explained_by_healthy_life_expectancy,
## #   ⁸​explained_by_freedom_to_make_life_choices
```
…
